2013-12-05 6:49:40 - ----------------------------------------------------------
2013-12-05 6:49:40 - paylineSDK::__construct(15505051730312, wI****************zM, , , , , 1)
2013-12-05 6:49:40 - webServiceRequest(doWebPayment) - Location : https://services.payline.com/V4/services/WebPaymentAPI
2013-12-05 6:49:42 - response return (code 00000)
2013-12-05 6:50:20 - ----------------------------------------------------------
2013-12-05 6:50:20 - paylineSDK::__construct(15505051730312, wI****************zM, , , , , 1)
2013-12-05 6:50:20 - webServiceRequest(getWebPaymentDetails) - Location : https://services.payline.com/V4/services/WebPaymentAPI
2013-12-05 6:50:20 - response return (code 01119)
2013-12-05 7:34:25 - ----------------------------------------------------------
2013-12-05 7:34:25 - paylineSDK::__construct(15505051730312, wI****************zM, , , , , 1)
2013-12-05 7:34:25 - webServiceRequest(doWebPayment) - Location : https://services.payline.com/V4/services/WebPaymentAPI
2013-12-05 7:34:25 - response return (code 00000)
2013-12-05 7:34:50 - ----------------------------------------------------------
2013-12-05 7:34:50 - paylineSDK::__construct(15505051730312, wI****************zM, , , , , 1)
2013-12-05 7:34:50 - webServiceRequest(getWebPaymentDetails) - Location : https://services.payline.com/V4/services/WebPaymentAPI
2013-12-05 7:34:50 - response return (code 00000)
2013-12-05 7:34:51 - ----------------------------------------------------------
2013-12-05 7:34:51 - paylineSDK::__construct(15505051730312, wI****************zM, , , , , 1)
2013-12-05 7:34:51 - webServiceRequest(getTransactionDetails) - Location : https://services.payline.com/V4/services/ExtendedAPI
2013-12-05 7:34:51 - response return (code 00000)
2013-12-05 7:34:51 - ----------------------------------------------------------
2013-12-05 7:34:51 - paylineSDK::__construct(15505051730312, wI****************zM, , , , , 1)
2013-12-05 7:34:51 - webServiceRequest(getTransactionDetails) - Location : https://services.payline.com/V4/services/ExtendedAPI
2013-12-05 7:34:52 - response return (code 00000)
2013-12-05 7:34:52 - webServiceRequest(doCapture) - Location : https://services.payline.com/V4/services/DirectPaymentAPI
2013-12-05 7:34:52 - response return (code 00000)
2013-12-05 7:45:19 - ----------------------------------------------------------
2013-12-05 7:45:19 - paylineSDK::__construct(15505051730312, wI****************zM, , , , , 1)
2013-12-05 7:45:19 - webServiceRequest(doWebPayment) - Location : https://services.payline.com/V4/services/WebPaymentAPI
2013-12-05 7:45:19 - response return (code 00000)
2013-12-05 7:45:44 - ----------------------------------------------------------
2013-12-05 7:45:44 - paylineSDK::__construct(15505051730312, wI****************zM, , , , , 1)
2013-12-05 7:45:44 - webServiceRequest(getWebPaymentDetails) - Location : https://services.payline.com/V4/services/WebPaymentAPI
2013-12-05 7:45:44 - response return (code 00000)
2013-12-05 7:45:44 - ----------------------------------------------------------
2013-12-05 7:45:44 - paylineSDK::__construct(15505051730312, wI****************zM, , , , , 1)
2013-12-05 7:45:44 - webServiceRequest(getTransactionDetails) - Location : https://services.payline.com/V4/services/ExtendedAPI
2013-12-05 7:45:45 - response return (code 00000)
2013-12-05 7:45:45 - ----------------------------------------------------------
2013-12-05 7:45:45 - paylineSDK::__construct(15505051730312, wI****************zM, , , , , 1)
2013-12-05 7:45:45 - webServiceRequest(getTransactionDetails) - Location : https://services.payline.com/V4/services/ExtendedAPI
2013-12-05 7:45:45 - response return (code 00000)
2013-12-05 7:45:45 - webServiceRequest(doCapture) - Location : https://services.payline.com/V4/services/DirectPaymentAPI
2013-12-05 7:45:45 - response return (code 00000)
2013-12-05 7:56:16 - ----------------------------------------------------------
2013-12-05 7:56:16 - paylineSDK::__construct(15505051730312, wI****************zM, , , , , 1)
2013-12-05 7:56:16 - webServiceRequest(doWebPayment) - Location : https://services.payline.com/V4/services/WebPaymentAPI
2013-12-05 7:56:16 - response return (code 00000)
2013-12-05 7:56:46 - ----------------------------------------------------------
2013-12-05 7:56:46 - paylineSDK::__construct(15505051730312, wI****************zM, , , , , 1)
2013-12-05 7:56:46 - webServiceRequest(getWebPaymentDetails) - Location : https://services.payline.com/V4/services/WebPaymentAPI
2013-12-05 7:56:46 - response return (code 02319)
2013-12-05 8:20:38 - ----------------------------------------------------------
2013-12-05 8:20:38 - paylineSDK::__construct(15505051730312, wI****************zM, , , , , 1)
2013-12-05 8:20:38 - webServiceRequest(doWebPayment) - Location : https://services.payline.com/V4/services/WebPaymentAPI
2013-12-05 8:20:39 - response return (code 00000)
2013-12-05 8:21:23 - ----------------------------------------------------------
2013-12-05 8:21:23 - paylineSDK::__construct(15505051730312, wI****************zM, , , , , 1)
2013-12-05 8:21:23 - webServiceRequest(getWebPaymentDetails) - Location : https://services.payline.com/V4/services/WebPaymentAPI
2013-12-05 8:21:23 - response return (code 00000)
2013-12-05 8:21:24 - ----------------------------------------------------------
2013-12-05 8:21:24 - paylineSDK::__construct(15505051730312, wI****************zM, , , , , 1)
2013-12-05 8:21:24 - webServiceRequest(getTransactionDetails) - Location : https://services.payline.com/V4/services/ExtendedAPI
2013-12-05 8:21:24 - response return (code 00000)
2013-12-05 8:21:24 - ----------------------------------------------------------
2013-12-05 8:21:24 - paylineSDK::__construct(15505051730312, wI****************zM, , , , , 1)
2013-12-05 8:21:24 - webServiceRequest(getTransactionDetails) - Location : https://services.payline.com/V4/services/ExtendedAPI
2013-12-05 8:21:24 - response return (code 00000)
2013-12-05 8:21:24 - webServiceRequest(doCapture) - Location : https://services.payline.com/V4/services/DirectPaymentAPI
2013-12-05 8:21:24 - response return (code 00000)
2013-12-05 11:46:41 - ----------------------------------------------------------
2013-12-05 11:46:41 - paylineSDK::__construct(15505051730312, wI****************zM, , , , , 1)
2013-12-05 11:46:41 - webServiceRequest(doWebPayment) - Location : https://services.payline.com/V4/services/WebPaymentAPI
2013-12-05 11:46:42 - response return (code 00000)
2013-12-05 11:47:32 - ----------------------------------------------------------
2013-12-05 11:47:32 - paylineSDK::__construct(15505051730312, wI****************zM, , , , , 1)
2013-12-05 11:47:32 - webServiceRequest(getWebPaymentDetails) - Location : https://services.payline.com/V4/services/WebPaymentAPI
2013-12-05 11:47:32 - response return (code 00000)
2013-12-05 11:47:33 - ----------------------------------------------------------
2013-12-05 11:47:33 - paylineSDK::__construct(15505051730312, wI****************zM, , , , , 1)
2013-12-05 11:47:33 - webServiceRequest(getTransactionDetails) - Location : https://services.payline.com/V4/services/ExtendedAPI
2013-12-05 11:47:33 - response return (code 00000)
2013-12-05 11:47:33 - ----------------------------------------------------------
2013-12-05 11:47:33 - paylineSDK::__construct(15505051730312, wI****************zM, , , , , 1)
2013-12-05 11:47:33 - webServiceRequest(getTransactionDetails) - Location : https://services.payline.com/V4/services/ExtendedAPI
2013-12-05 11:47:33 - response return (code 00000)
2013-12-05 11:47:33 - webServiceRequest(doCapture) - Location : https://services.payline.com/V4/services/DirectPaymentAPI
2013-12-05 11:47:33 - response return (code 00000)
2013-12-05 16:28:11 - ----------------------------------------------------------
2013-12-05 16:28:11 - paylineSDK::__construct(15505051730312, wI****************zM, , , , , 1)
2013-12-05 16:28:11 - webServiceRequest(doWebPayment) - Location : https://services.payline.com/V4/services/WebPaymentAPI
2013-12-05 16:28:11 - response return (code 00000)
2013-12-05 16:45:41 - ----------------------------------------------------------
2013-12-05 16:45:41 - paylineSDK::__construct(15505051730312, wI****************zM, , , , , 1)
2013-12-05 16:45:41 - webServiceRequest(getWebPaymentDetails) - Location : https://services.payline.com/V4/services/WebPaymentAPI
2013-12-05 16:45:42 - response return (code 02304)
2013-12-05 17:49:31 - ----------------------------------------------------------
2013-12-05 17:49:31 - paylineSDK::__construct(15505051730312, wI****************zM, , , , , 1)
2013-12-05 17:49:31 - webServiceRequest(doWebPayment) - Location : https://services.payline.com/V4/services/WebPaymentAPI
2013-12-05 17:49:31 - response return (code 00000)
2013-12-05 17:50:35 - ----------------------------------------------------------
2013-12-05 17:50:35 - paylineSDK::__construct(15505051730312, wI****************zM, , , , , 1)
2013-12-05 17:50:35 - webServiceRequest(getWebPaymentDetails) - Location : https://services.payline.com/V4/services/WebPaymentAPI
2013-12-05 17:50:35 - response return (code 00000)
2013-12-05 17:50:36 - ----------------------------------------------------------
2013-12-05 17:50:36 - paylineSDK::__construct(15505051730312, wI****************zM, , , , , 1)
2013-12-05 17:50:36 - webServiceRequest(getTransactionDetails) - Location : https://services.payline.com/V4/services/ExtendedAPI
2013-12-05 17:50:36 - response return (code 00000)
2013-12-05 17:50:36 - ----------------------------------------------------------
2013-12-05 17:50:36 - paylineSDK::__construct(15505051730312, wI****************zM, , , , , 1)
2013-12-05 17:50:36 - webServiceRequest(getTransactionDetails) - Location : https://services.payline.com/V4/services/ExtendedAPI
2013-12-05 17:50:36 - response return (code 00000)
2013-12-05 17:50:36 - webServiceRequest(doCapture) - Location : https://services.payline.com/V4/services/DirectPaymentAPI
2013-12-05 17:50:36 - response return (code 00000)
2013-12-05 18:50:10 - ----------------------------------------------------------
2013-12-05 18:50:10 - paylineSDK::__construct(15505051730312, wI****************zM, , , , , 1)
2013-12-05 18:50:10 - webServiceRequest(doWebPayment) - Location : https://services.payline.com/V4/services/WebPaymentAPI
2013-12-05 18:50:11 - response return (code 00000)
2013-12-05 18:51:12 - ----------------------------------------------------------
2013-12-05 18:51:12 - paylineSDK::__construct(15505051730312, wI****************zM, , , , , 1)
2013-12-05 18:51:12 - webServiceRequest(getWebPaymentDetails) - Location : https://services.payline.com/V4/services/WebPaymentAPI
2013-12-05 18:51:13 - response return (code 00000)
2013-12-05 18:51:13 - ----------------------------------------------------------
2013-12-05 18:51:13 - paylineSDK::__construct(15505051730312, wI****************zM, , , , , 1)
2013-12-05 18:51:13 - webServiceRequest(getTransactionDetails) - Location : https://services.payline.com/V4/services/ExtendedAPI
2013-12-05 18:51:14 - response return (code 00000)
2013-12-05 18:51:14 - ----------------------------------------------------------
2013-12-05 18:51:14 - paylineSDK::__construct(15505051730312, wI****************zM, , , , , 1)
2013-12-05 18:51:14 - webServiceRequest(getTransactionDetails) - Location : https://services.payline.com/V4/services/ExtendedAPI
2013-12-05 18:51:14 - response return (code 00000)
2013-12-05 18:51:14 - webServiceRequest(doCapture) - Location : https://services.payline.com/V4/services/DirectPaymentAPI
2013-12-05 18:51:14 - response return (code 00000)
2013-12-05 18:53:22 - ----------------------------------------------------------
2013-12-05 18:53:22 - paylineSDK::__construct(15505051730312, wI****************zM, , , , , 1)
2013-12-05 18:53:22 - webServiceRequest(getWebPaymentDetails) - Location : https://services.payline.com/V4/services/WebPaymentAPI
2013-12-05 18:53:22 - response return (code 00000)
