2013-11-18 5:44:05 - ----------------------------------------------------------
2013-11-18 5:44:05 - paylineSDK::__construct(15505051730312, wI****************zM, , , , , 1)
2013-11-18 5:44:05 - webServiceRequest(doWebPayment) - Location : https://services.payline.com/V4/services/WebPaymentAPI
2013-11-18 5:44:06 - response return (code 00000)
2013-11-18 5:45:19 - ----------------------------------------------------------
2013-11-18 5:45:19 - paylineSDK::__construct(15505051730312, wI****************zM, , , , , 1)
2013-11-18 5:45:19 - webServiceRequest(getWebPaymentDetails) - Location : https://services.payline.com/V4/services/WebPaymentAPI
2013-11-18 5:45:19 - response return (code 02319)
